Az1&2/Az2/Az2/simulation/qsim/Az2.msim.vcd
$comment
	File created using the following command:
		vcd file Az2.msim.vcd -direction
$end
$date
	Sun Jul 09 02:35:40 2023
$end
$version
	ModelSim Version 10.1d
$end
$timescale
	1ps
$end
$scope module WaitingRoom_vlg_vec_tst $end
$var reg 1 ! clk $end
$var reg 1 " clr $end
$var reg 1 # Ent $end
$var reg 1 $ IN $end
$var reg 1 % OUT $end
$var reg 1 & T $end
$var wire 1 ' close $end
$var wire 1 ( open $end
$var wire 1 ) Q [3] $end
$var wire 1 * Q [2] $end
$var wire 1 + Q [1] $end
$var wire 1 , Q [0] $end
$var wire 1 - sampler $end
$scope module i1 $end
$var wire 1 . gnd $end
$var wire 1 / vcc $end
$var wire 1 0 unknown $end
$var tri1 1 1 devclrn $end
$var tri1 1 2 devpor $end
$var tri1 1 3 devoe $end
$var wire 1 4 close~output_o $end
$var wire 1 5 Q[3]~output_o $end
$var wire 1 6 Q[2]~output_o $end
$var wire 1 7 Q[1]~output_o $end
$var wire 1 8 Q[0]~output_o $end
$var wire 1 9 open~output_o $end
$var wire 1 : clk~input_o $end
$var wire 1 ; clk~inputclkctrl_outclk $end
$var wire 1 < T~input_o $end
$var wire 1 = IN~input_o $end
$var wire 1 > Ent~input_o $end
$var wire 1 ? inst10~2_combout $end
$var wire 1 @ OUT~input_o $end
$var wire 1 A inst10~combout $end
$var wire 1 B inst|inst~0_combout $end
$var wire 1 C clr~input_o $end
$var wire 1 D clr~inputclkctrl_outclk $end
$var wire 1 E inst|inst~q $end
$var wire 1 F inst9~0_combout $end
$var wire 1 G inst9~1_combout $end
$var wire 1 H inst|inst1~0_combout $end
$var wire 1 I inst|inst1~q $end
$var wire 1 J inst|inst14~0_combout $end
$var wire 1 K inst|inst3~0_combout $end
$var wire 1 L inst|inst3~q $end
$var wire 1 M inst3~combout $end
$var wire 1 N inst7~combout $end
$var wire 1 O inst|inst2~0_combout $end
$var wire 1 P inst|inst2~1_combout $end
$var wire 1 Q inst|inst2~q $end
$var wire 1 R inst4~combout $end
$upscope $end
$upscope $end
$enddefinitions $end
#0
$dumpvars
0!
0"
0#
0$
0%
0&
1'
0(
0,
0+
0*
0)
x-
0.
1/
x0
11
12
13
14
05
06
07
08
09
0:
0;
0<
0=
0>
0?
0@
0A
0B
0C
0D
0E
0F
0G
0H
0I
1J
0K
0L
0M
0N
1O
0P
0Q
0R
$end
#10000
1!
1"
1#
1&
1:
1C
1>
1<
1;
1D
0-
#20000
1$
0!
1=
0:
0;
1-
1?
1A
1N
1G
1B
19
1(
1P
1K
0O
0J
0P
0K
#30000
1!
1:
1;
0-
1E
1R
1H
0B
18
1,
04
0'
#40000
0!
0:
0;
1-
#50000
1!
1:
1;
0-
1I
0E
1B
17
08
1+
0,
#60000
0!
0:
0;
1-
#70000
1!
1:
1;
0-
1E
1O
0H
0B
18
1,
1P
#80000
0!
0:
0;
1-
#90000
1!
1:
1;
0-
1Q
0I
0E
1B
16
07
08
1*
0+
0,
#100000
0!
0:
0;
1-
#110000
1!
1:
1;
0-
1E
1H
0B
18
1,
#120000
0!
0:
0;
1-
#130000
1!
1:
1;
0-
1I
0E
1B
17
08
1+
0,
#140000
0!
0:
0;
1-
#150000
1!
1:
1;
0-
1E
0O
1J
0H
0B
18
1,
0P
1K
#160000
0!
0:
0;
1-
#170000
1!
1:
1;
0-
0Q
1L
0I
0E
0J
0K
1B
06
15
07
08
0*
1)
0+
0,
1K
#180000
0!
0:
0;
1-
#190000
1!
1:
1;
0-
1E
1H
0B
18
1,
#200000
0!
0:
0;
1-
#210000
1!
1:
1;
0-
1I
0E
1B
17
08
1+
0,
#220000
0!
0:
0;
1-
#230000
1!
1:
1;
0-
1E
1O
0H
1F
0B
18
1,
1P
#240000
0!
0:
0;
1-
#250000
1!
1:
1;
0-
1Q
0I
0E
0G
0F
1B
16
07
08
1*
0+
0,
0O
1H
1G
0P
1O
0H
1P
#260000
0!
0:
0;
1-
#270000
1!
1:
1;
0-
1E
1H
0B
18
1,
#280000
0!
0:
0;
1-
#290000
1!
1:
1;
0-
1I
0E
1B
17
08
1+
0,
#300000
0!
0:
0;
1-
#310000
1!
1:
1;
0-
1E
0O
1M
1J
0H
1F
0B
18
1,
0P
0N
0K
0G
0A
1P
1K
1H
1O
0J
1B
09
0(
#320000
0!
0:
0;
1-
#330000
1!
1:
1;
0-
#340000
0!
0:
0;
1-
#350000
0#
0$
1!
0>
0=
1:
1;
0-
0?
#360000
1%
0!
1@
0:
0;
1-
1N
0B
#370000
1!
1:
1;
0-
0E
0M
0H
0F
1B
08
0,
#380000
0!
0:
0;
1-
#390000
1!
1:
1;
0-
0I
1E
0B
07
18
0+
1,
#400000
0!
0:
0;
1-
#410000
1!
1:
1;
0-
0E
0O
1H
1B
08
0,
0P
#420000
0!
0:
0;
1-
#430000
1!
1:
1;
0-
0Q
1I
1E
1F
0B
06
17
18
0*
1+
1,
#440000
0!
0:
0;
1-
#450000
1!
1:
1;
0-
0E
0H
0F
1B
08
0,
#460000
0!
0:
0;
1-
#470000
1!
1:
1;
0-
0I
1E
0B
07
18
0+
1,
#480000
0!
0:
0;
1-
#490000
1!
1:
1;
0-
0E
1O
1J
1H
1B
08
0,
1P
0K
#500000
0!
0:
0;
1-
#510000
1!
1:
1;
0-
1Q
0L
1I
1E
0J
1K
0B
16
05
17
18
1*
0)
1+
1,
0K
#520000
1#
1$
0!
1>
1=
0:
0;
1-
1?
1A
0N
1B
19
1(
#530000
1!
1:
1;
0-
#540000
0!
0:
0;
1-
#550000
1!
1:
1;
0-
#560000
0#
0$
0!
0>
0=
0:
0;
1-
0?
0A
1N
0B
09
0(
#570000
1!
1:
1;
0-
0E
0H
1B
08
0,
#580000
0!
0:
0;
1-
#590000
1!
1:
1;
0-
0I
1E
0B
07
18
0+
1,
#600000
0!
0:
0;
1-
#610000
1!
1:
1;
0-
0E
0O
1H
1B
08
0,
0P
#620000
0!
0:
0;
1-
#630000
0%
1!
0@
1:
1;
0-
0N
0B
1P
0H
0Q
1I
1E
0P
1H
1B
06
17
18
0*
1+
1,
#640000
0!
0:
0;
1-
#650000
1!
1:
1;
0-
#660000
0!
0:
0;
1-
#670000
1!
1:
1;
0-
#680000
0!
0:
0;
1-
#690000
0"
1!
0C
1:
0D
1;
0-
0I
0E
0R
1O
1J
0H
0B
07
08
0+
0,
14
1'
#700000
0!
0:
0;
1-
#710000
1!
1:
1;
0-
#720000
0!
0:
0;
1-
#730000
1!
1:
1;
0-
#740000
0!
0:
0;
1-
#750000
1"
1!
1C
1:
1D
1;
0-
#760000
0!
0:
0;
1-
#770000
1!
1:
1;
0-
#780000
0!
0:
0;
1-
#790000
1#
1$
1!
1>
1=
1:
1;
0-
1?
1A
1N
1G
1B
19
1(
1P
1K
0O
0J
0P
0K
#800000
0!
0:
0;
1-
#810000
1!
1:
1;
0-
1E
1R
1H
0B
18
1,
04
0'
#820000
0!
0:
0;
1-
#830000
0#
0$
1!
0>
0=
1:
1;
0-
0?
0A
0N
0G
1B
09
0(
0H
1I
0E
1H
0B
17
08
1+
0,
#840000
0!
0:
0;
1-
#850000
1!
1:
1;
0-
#860000
0!
0:
0;
1-
#870000
1!
1:
1;
0-
#880000
0!
0:
0;
1-
#890000
1!
1:
1;
0-
#900000
0!
0:
0;
1-
#910000
1!
1:
1;
0-
#920000
0!
0:
0;
1-
#930000
1!
1:
1;
0-
#940000
0&
1#
1$
0!
0<
1>
1=
0:
0;
1-
#950000
1!
1:
1;
0-
#960000
0!
0:
0;
1-
#970000
1!
1:
1;
0-
#980000
0!
0:
0;
1-
#990000
1!
1:
1;
0-
