Az1&2/Az1/Az1/simulation/qsim/Az1.msim.vcd
$comment
	File created using the following command:
		vcd file Az1.msim.vcd -direction
$end
$date
	Thu Jul 06 03:14:08 2023
$end
$version
	ModelSim Version 10.1d
$end
$timescale
	1ps
$end
$scope module Az1_vlg_vec_tst $end
$var reg 4 ! D0 [3:0] $end
$var reg 4 " D1 [3:0] $end
$var reg 4 # D2 [3:0] $end
$var reg 4 $ D3 [3:0] $end
$var wire 1 % R3 $end
$var wire 1 & R11 $end
$var wire 1 ' sampler $end
$scope module i1 $end
$var wire 1 ( gnd $end
$var wire 1 ) vcc $end
$var wire 1 * unknown $end
$var tri1 1 + devclrn $end
$var tri1 1 , devpor $end
$var tri1 1 - devoe $end
$var wire 1 . R3~output_o $end
$var wire 1 / R11~output_o $end
$var wire 1 0 D3[3]~input_o $end
$var wire 1 1 D3[0]~input_o $end
$var wire 1 2 D3[1]~input_o $end
$var wire 1 3 D3[2]~input_o $end
$var wire 1 4 inst|inst19~1_combout $end
$var wire 1 5 D0[1]~input_o $end
$var wire 1 6 D0[0]~input_o $end
$var wire 1 7 D0[2]~input_o $end
$var wire 1 8 D0[3]~input_o $end
$var wire 1 9 inst|inst19~3_combout $end
$var wire 1 : inst|inst19~5_combout $end
$var wire 1 ; D1[2]~input_o $end
$var wire 1 < D1[1]~input_o $end
$var wire 1 = D1[3]~input_o $end
$var wire 1 > D1[0]~input_o $end
$var wire 1 ? inst|inst19~6_combout $end
$var wire 1 @ inst|inst19~7_combout $end
$var wire 1 A D2[1]~input_o $end
$var wire 1 B D2[2]~input_o $end
$var wire 1 C D2[3]~input_o $end
$var wire 1 D D2[0]~input_o $end
$var wire 1 E inst|inst19~4_combout $end
$var wire 1 F inst|inst19~9_combout $end
$var wire 1 G inst|inst19~8_combout $end
$var wire 1 H inst|inst19~2_combout $end
$var wire 1 I inst|inst19~10_combout $end
$var wire 1 J inst|inst19~0_combout $end
$var wire 1 K inst|inst19~11_combout $end
$var wire 1 L inst|inst19~12_combout $end
$var wire 1 M inst3|inst2|inst3|inst4~0_combout $end
$var wire 1 N inst3|inst2|inst2|inst6~0_combout $end
$var wire 1 O inst3|inst|inst3|inst4~0_combout $end
$var wire 1 P inst3|inst|inst2|inst6~0_combout $end
$var wire 1 Q inst3|inst|inst3|inst6~1_combout $end
$var wire 1 R inst3|inst|inst3|inst6~0_combout $end
$var wire 1 S inst3|inst|inst3|inst6~2_combout $end
$var wire 1 T inst3|inst1|inst1|inst2~combout $end
$var wire 1 U inst3|inst|inst3|inst4~1_combout $end
$var wire 1 V inst3|inst|inst3|inst4~2_combout $end
$var wire 1 W inst3|inst26|inst1|inst2~0_combout $end
$var wire 1 X inst3|inst5|inst1|inst2~combout $end
$var wire 1 Y inst3|inst2|inst3|inst6~1_combout $end
$var wire 1 Z inst3|inst2|inst3|inst6~0_combout $end
$var wire 1 [ inst3|inst2|inst3|inst6~2_combout $end
$var wire 1 \ inst3|inst2|inst3|inst4~1_combout $end
$var wire 1 ] inst3|inst2|inst3|inst4~2_combout $end
$var wire 1 ^ inst3|inst5|inst2|inst4~0_combout $end
$var wire 1 _ inst3|inst22~0_combout $end
$var wire 1 ` inst3|inst14~combout $end
$var wire 1 a inst3|inst26|inst|inst2~0_combout $end
$var wire 1 b inst3|inst15~combout $end
$var wire 1 c inst3|inst18~0_combout $end
$var wire 1 d inst3|inst11~0_combout $end
$var wire 1 e inst3|inst24~0_combout $end
$var wire 1 f inst3|inst2|inst1|inst6~0_combout $end
$var wire 1 g inst3|inst27|inst2|inst2~0_combout $end
$var wire 1 h inst3|inst|inst1|inst6~0_combout $end
$var wire 1 i inst3|inst26|inst2|inst2~0_combout $end
$var wire 1 j inst3|inst24~combout $end
$upscope $end
$upscope $end
$enddefinitions $end
#0
$dumpvars
b0 !
b0 "
b1 #
b10 $
1%
0&
x'
0(
1)
x*
1+
1,
1-
1.
0/
00
01
12
03
04
05
06
07
08
09
0:
0;
0<
0=
0>
0?
1@
0A
0B
0C
1D
0E
0F
1G
1H
0I
0J
0K
0L
0M
0N
0O
0P
0Q
0R
0S
0T
0U
0V
0W
0X
0Y
0Z
0[
0\
0]
0^
0_
0`
0a
0b
0c
1d
0e
1f
1g
0h
0i
0j
$end
#40000
b1 !
b100 "
b101 "
b101 #
b100 #
b1010 $
b1000 $
b1001 $
11
02
10
0D
1B
1>
1;
16
0'
0@
1Z
1P
1?
1^
1N
19
1[
1W
1`
1I
1_
0`
1L
1e
1`
0.
0%
#80000
b11 !
b110 #
b10 !
b100 "
b111 #
b1 $
b0 $
01
00
0>
1D
1A
06
15
1'
0f
0Z
1J
0?
1Q
1O
1:
09
0g
0[
1S
1U
0P
0I
0_
1a
0W
0e
1b
#120000
b1100 "
b100 $
b1000 "
b11 #
b110 $
b1 #
b11 !
b1001 "
b0 #
b111 $
16
0D
0A
0B
11
12
13
1>
0;
1=
0'
1h
1T
0Q
0O
0:
0H
0U
0S
1P
1Y
1M
14
0J
1Z
1i
0a
1W
0P
0G
1K
0^
1\
0N
0b
0W
0K
0L
1]
0`
1L
1_
1.
1%
1e
1`
0.
0%
#160000
b111 !
b1011 "
b101 !
b11 "
b101 $
b10 #
b100 !
b11 #
1D
1A
02
1<
0=
06
05
17
1'
1@
04
0]
0Z
19
1P
1G
0L
0_
1[
1I
1W
0I
0e
1b
1L
1.
1%
0L
0.
0%
1.
1%
#200000
b1 $
b111 #
b10 "
b0 "
b1000 "
b11 $
b101 !
b110 #
16
0>
0<
1=
0D
1B
12
03
0'
0d
1:
09
1f
0Y
1X
0M
1?
1]
1Z
1U
1S
0P
0@
1^
0\
0[
1N
0G
1F
1K
1g
1[
0`
0N
1_
1c
0W
0]
0K
1I
1L
0b
0g
0i
1e
0.
0%
1j
1/
1&
#240000
b1110 #
b111 !
b1100 #
b1000 #
b1010 "
b10 "
b1 $
b110 !
b1001 #
02
1<
0=
06
15
1D
0A
0B
1C
1'
14
0Z
0:
0U
0S
1P
1V
1R
0[
1G
0F
0V
1a
1W
1S
1b
0_
1K
0I
0a
1`
0e
1g
0L
0b
0j
1.
0/
1%
0&
#280000
b1001 $
b110 "
b1000 $
b111 "
b1 #
b11 #
b111 !
b10 #
16
0D
1A
0C
1>
1;
01
10
0'
0h
0T
1Q
1O
19
1E
0R
1J
0?
1N
1@
04
1Z
1i
0W
1U
0P
0K
0G
1F
0`
1[
1`
0c
1a
1L
1K
1_
0i
1b
0L
0g
0.
0%
1.
1%
#320000
b1111 !
b1011 !
b1100 $
b1001 !
b110 #
b101 "
b1110 $
b110 $
b1 "
b100 #
b1000 !
b101 #
0<
0;
1D
0A
1B
12
13
00
06
05
07
18
1'
0Q
0O
0@
0Z
1:
09
1V
1R
0U
1P
0[
0K
1I
1c
1W
0V
0a
0W
0_
1L
1i
0`
0b
1`
1g
0.
0%
#360000
b0 "
b1101 #
b1001 #
b10 "
b100 $
b110 "
b1001 !
b1000 #
16
02
0D
0B
1C
0>
1<
1;
0'
1d
0:
0X
14
0P
1V
0R
0J
1\
1[
0N
1e
1G
0F
0`
0^
1a
1W
0S
1_
1K
0I
0_
0a
0e
1j
0L
1e
1`
1b
1/
1&
0j
0e
1.
0/
1%
0&
#400000
b1 !
b0 $
b0 #
b100 "
b10 $
b0 "
b0 !
b1 #
0<
0;
1D
0C
12
03
06
08
1'
0\
0[
1H
0E
0V
1@
04
0b
0K
0c
0W
1L
0L
0i
0`
0.
0%
1.
1%
#440000
b11 $
b1011 $
b1 "
b101 #
b1001 $
b101 "
b1 !
b100 #
16
0D
1B
1>
1;
11
02
10
0'
19
1P
1?
1^
1N
0@
1Z
1I
1W
1`
1[
1L
0`
1_
1e
1`
0.
0%
#480000
b11 !
b110 #
b1000 $
b0 $
b100 "
b10 !
b111 #
0>
01
00
1D
1A
06
15
1'
0f
1J
0?
0Z
1Q
1O
1:
09
0g
0[
1S
1U
0P
0I
0_
1a
0W
0e
1b
#520000
b1100 "
b100 $
b11 #
b110 $
b1000 "
b1 #
b111 $
b1001 "
b11 !
b0 #
16
0D
0A
0B
11
12
13
1>
0;
1=
0'
1h
1T
0Q
0O
0:
0H
0U
0S
1P
1Y
1M
14
0J
1Z
1i
0a
1W
0P
0G
1K
0^
1\
0N
0b
0W
0K
0L
1]
0`
1L
1_
1.
1%
1e
1`
0.
0%
#560000
b111 !
b1011 "
b101 !
b11 "
b101 $
b10 #
b100 !
b11 #
1D
1A
02
1<
0=
06
05
17
1'
1@
04
0]
0Z
19
1P
1G
0L
0_
1[
1I
1W
0I
0e
1b
1L
1.
1%
0L
0.
0%
1.
1%
#600000
b1 $
b111 #
b10 "
b0 "
b1000 "
b11 $
b101 !
b110 #
16
0>
0<
1=
0D
1B
12
03
0'
0d
1:
09
1f
0Y
1X
0M
1?
1]
1Z
1U
1S
0P
0@
1^
0\
0[
1N
0G
1F
1K
1g
1[
0`
0N
1_
1c
0W
0]
0K
1I
1L
0b
0g
0i
1e
0.
0%
1j
1/
1&
#640000
b1110 #
b111 !
b1100 #
b1000 #
b1010 "
b10 "
b1 $
b110 !
b1001 #
02
1<
0=
06
15
1D
0A
0B
1C
1'
14
0Z
0:
0U
0S
1P
1V
1R
0[
1G
0F
0V
1a
1W
1S
1b
0_
1K
0I
0a
1`
0e
1g
0L
0b
0j
1.
0/
1%
0&
#680000
b1001 $
b1000 $
b11 "
b1 #
b101 #
b1 "
b111 !
b100 #
16
0D
1B
0C
1>
0<
01
10
0'
19
1H
1U
0S
0P
0R
0f
0X
1J
0?
1@
04
1Z
0K
1I
0c
0W
1S
0g
0^
1[
1L
1i
1e
0`
1c
1b
0i
0e
0.
0%
#720000
b1111 !
b101 "
b1011 !
b1100 $
b1001 !
b110 #
b1110 $
b110 $
b111 $
b100 "
b1000 !
b111 #
1D
1A
11
12
13
00
0>
1;
06
05
07
18
1'
1f
1X
0@
14
1\
0[
0Z
1:
09
0U
0S
1P
1V
1R
1g
1^
0L
0b
1[
0I
0V
1a
1W
1S
1b
1_
1L
0a
1`
1.
1%
0g
0b
0.
0%
1e
#760000
b1100 "
b11 #
b0 !
b1000 "
b101 $
b1001 "
b1 !
b10 #
02
16
08
0D
0B
1>
0;
1=
0'
0X
1@
04
1d
0:
19
0R
0H
1E
0P
1g
0J
0\
0[
1N
1]
1Z
0G
1F
0L
0e
0S
0W
0]
1b
1[
1K
0c
0`
0b
1.
1%
1L
1i
1e
0.
0%
1j
1/
1&
#800000
b1 $
b11 !
b0 #
b1001 $
b1000 $
b1 "
b100 #
b0 "
b10 !
b101 #
0>
0=
1D
0A
1B
06
15
01
03
10
1'
0f
1P
1:
09
0^
0N
0g
1W
0F
0K
1I
1b
0_
1`
0I
0e
0j
0L
0/
0&
1.
1%
#840000
b100 "
b1010 $
b10 $
b11 $
b1 #
b101 "
b11 !
b0 #
16
0D
0B
11
12
00
1>
1;
0'
0:
0E
0P
1Y
1M
0@
0Z
1?
1^
1N
1G
0W
0^
1\
0N
0b
1_
0`
1K
1`
1b
0_
1e
1L
0e
0`
0.
0%
#880000
b1 !
b10 #
b1 "
b1 $
b110 #
b0 "
b0 !
b111 #
02
0>
0;
1D
1A
1B
06
05
1'
0Y
0M
14
0d
0?
1^
0\
0[
1N
1H
1P
0^
0N
0L
0G
0b
1`
0K
1W
1I
1e
1L
1.
1%
0.
0%
#920000
b0 $
b100 "
b10 $
b11 #
b101 "
b1 !
b10 #
16
0D
0B
1>
1;
01
12
0'
19
0H
1E
0P
1f
1X
1?
1^
1N
1@
04
0W
1g
0`
1`
1j
1/
1&
0j
0/
0&
#960000
b101 !
b111 !
b0 #
b1 "
b100 #
b0 "
b110 !
b101 #
0>
0;
1D
0A
1B
06
15
17
1'
1d
0X
0?
0N
1U
1S
09
0e
0`
0^
1F
1c
0I
1I
0i
1e
0L
1L
1.
1%
0.
0%
